Semana 3 y 4: Medidas descriptivas y análisis exploratorio
…
Hasta ahora, hemos estado enfocados en variables numéricas, pero ¿qué pasa con las categóricas? Aquí es donde entra la función univar_category(), que nos permite describir variables categóricas, como el continente o el país:

univar_category(gapminder_2007)

$country
# A tibble: 142 × 3
   country         n    rate
   <fct>       <int>   <dbl>
 1 Afghanistan     1 0.00704
 2 Albania         1 0.00704
 3 Algeria         1 0.00704
 4 Angola          1 0.00704
 5 Argentina       1 0.00704
 6 Australia       1 0.00704
 7 Austria         1 0.00704
 8 Bahrain         1 0.00704
 9 Bangladesh      1 0.00704
10 Belgium         1 0.00704
# ℹ 132 more rows
…
